<?xml version="1.0" encoding="utf-8"?>
<!-- Generator: Adobe Illustrator 16.0.4, SVG Export Plug-In . SVG Version: 6.00 Build 0)  -->
<!DOCTYPE svg PUBLIC "-//W3C//DTD SVG 1.1//EN" "http://www.w3.org/Graphics/SVG/1.1/DTD/svg11.dtd">
<svg version="1.1" id="Layer_1" xmlns="http://www.w3.org/2000/svg" xmlns:xlink="http://www.w3.org/1999/xlink" x="0px" y="0px"
	 width="98px" height="34.704px" viewBox="0 0 98 34.704" enable-background="new 0 0 98 34.704" xml:space="preserve">
<g>
	<g>
		<path fill="#FFFFFF" d="M1.613,26.774v-8.84H8.43v10.475L1.613,26.774z M11.534,17.935h6.818v8.84l-6.818,1.634V17.935z
			 M1.613,10.105L8.43,8.452v6.352H1.613V10.105z M11.534,8.452l6.818,1.653v4.698h-6.818V8.452z M0,29.984h19.967V6.774H0V29.984z"
			/>
		<g>
			<path fill="#FFFFFF" d="M45.688,12.406l-2.385-3.152c0.785-0.234,3.749-0.593,3.749-4.619c0,0,0.253-4.635-5.478-4.635h-2.312
				h-0.201h-0.899h-2.796v1.8h1.748v10.631h-1.646v1.852h5.278v-1.852h-1.483V2.001c1.654,0,5.58-0.419,5.58,2.751
				c0,3.151-3.032,3.215-5.002,3.118l4.625,6.463h3.142v-1.927H45.688z"/>
			<path fill="#FFFFFF" d="M48.988,9.729h9.101c0-4.833-2.984-6.302-5.633-6.302c-2.888,0-5.562,1.938-5.562,5.539
				c0,4.36,3.935,5.665,5.715,5.665c2.074,0,4.211-1.315,5.116-3.416H55.59c0,0-0.896,1.64-2.957,1.64
				C50.572,12.854,48.988,11.524,48.988,9.729 M52.534,5.201c3.092,0,3.657,2.942,3.657,2.942h-7.316
				C48.875,8.144,49.441,5.201,52.534,5.201"/>
			<path fill="#FFFFFF" d="M60.633,25.779h9.099c0-4.834-2.983-6.304-5.632-6.304c-2.887,0-5.561,1.939-5.561,5.541
				c0,4.357,3.933,5.664,5.713,5.664c2.076,0,4.213-1.314,5.117-3.416h-2.137c0,0-0.896,1.641-2.956,1.641
				S60.633,27.573,60.633,25.779 M64.176,21.251c3.093,0,3.66,2.94,3.66,2.94H60.52C60.52,24.191,61.084,21.251,64.176,21.251"/>
			<path fill="#FFFFFF" d="M72.459,9.729h9.1c0-4.833-2.984-6.302-5.633-6.302c-2.885,0-5.561,1.938-5.561,5.539
				c0,4.36,3.934,5.665,5.715,5.665c2.074,0,4.211-1.315,5.116-3.416H79.06c0,0-0.896,1.64-2.955,1.64S72.459,11.524,72.459,9.729
				 M76.004,5.201c3.092,0,3.658,2.942,3.658,2.942h-7.315C72.347,8.144,72.913,5.201,76.004,5.201"/>
			<path fill="#FFFFFF" d="M84,25.779h9.098c0-4.834-2.984-6.304-5.633-6.304c-2.885,0-5.56,1.939-5.56,5.541
				c0,4.357,3.933,5.664,5.714,5.664c2.074,0,4.213-1.314,5.116-3.416H90.6c0,0-0.895,1.641-2.956,1.641
				C85.584,28.905,84,27.573,84,25.779 M87.545,21.251c3.09,0,3.658,2.94,3.658,2.94h-7.318
				C83.885,24.191,84.452,21.251,87.545,21.251"/>
			<path fill="#FFFFFF" d="M84,25.779c0,0,8.496-0.006,9.051-0.006c0-1.853-0.236-5.916-5.43-6.316c0,0-5.166-0.432-5.795,5.57
				c0.227,5.403,5.516,5.653,5.793,5.653c1.934,0,4.213-1.314,5.116-3.416H90.6c0,0-0.895,1.641-2.956,1.641
				C85.584,28.905,84,27.573,84,25.779 M87.545,21.251c3.09,0,3.658,2.94,3.658,2.94h-7.318
				C83.885,24.191,84.452,21.251,87.545,21.251"/>
			<path fill="#FFFFFF" d="M67.84,3.752v1.97c-0.045-0.176-0.146-0.327-0.18-0.371c-0.521-0.664-1.681-1.812-3.904-1.812
				c-2.361,0-5.416,1.889-5.416,5.49c0,3.678,2.877,5.603,5.654,5.603c2.211,0,3.67-1.874,3.67-1.874s-0.052-0.201-0.052,1.273
				c-0.312,1.694-1.508,2.952-3.393,2.952c-2.144,0-2.979-1.601-2.979-1.601h-2.148c0,0.524,1.15,3.326,5.154,3.326
				c3.846,0,5.402-2.951,5.402-4.525v-8.58h1.561V3.727L67.84,3.752z M60.349,8.993c-0.132-4.593,7.396-4.984,7.396,0
				C67.745,13.977,60.349,13.595,60.349,8.993"/>
			<path fill="#FFFFFF" d="M79.432,19.75v1.969c-0.045-0.175-0.146-0.329-0.182-0.371c-0.521-0.664-1.68-1.812-3.902-1.812
				c-2.361,0-5.417,1.888-5.417,5.49c0,3.676,3.089,5.602,5.655,5.602c2.211,0,3.668-1.875,3.668-1.875s-0.024-0.201-0.024,1.274
				c-0.312,1.694-1.532,2.953-3.418,2.953c-2.142,0-2.979-1.603-2.979-1.603h-2.147c0,0.525,1.149,3.326,5.151,3.326
				c3.849,0,5.404-2.951,5.404-4.524V21.6h1.561v-1.874L79.432,19.75z M71.939,24.991c-0.13-4.594,7.396-4.986,7.396,0
				C79.334,29.974,71.939,29.592,71.939,24.991"/>
			<path fill="#FFFFFF" d="M91.691,12.605V7.179c0,0-0.315-3.589-4.437-3.589c-1.854,0.047-2.561,1.146-3.032,1.517v-1.28
				l-3.515-0.024v1.803h1.607v6.927h-1.587v1.925h5.104v-1.925h-1.533V7.778c0.053-1.501,1.761-2.25,2.617-2.25
				c0.854,0,2.813,0.375,2.813,2.801v4.251h-1.534v1.876h5.127v-1.851H91.691z"/>
		</g>
		<polygon fill="#FFFFFF" points="93.82,5.701 93.805,14.482 98,14.482 98,12.58 95.786,12.58 95.786,5.727 97.801,5.727 
			97.801,3.878 95.786,3.878 95.786,0.159 93.779,0.159 93.779,3.853 91.902,3.853 91.902,5.701 		"/>
		<g>
			<path fill="#FFFFFF" d="M35.467,26.008c-0.377,0.527-1.578,2.404-4.543,2.404c-2.967,0-5.084-2.477-5.084-5.429
				c0-2.951,2.172-5.227,5.136-5.227c2.966,0,4.516,2.301,4.516,2.301l2.011-0.025V15.88h-1.859c0,0-0.005,1.455-0.024,1.438
				c-2.229-2.036-4.651-1.835-4.651-1.835c-4.046,0-7.439,3.325-7.439,7.578c0,4.018,3.357,7.503,7.579,7.503
				c4.589,0,6.722-4.004,6.722-4.556H35.467z"/>
			<path fill="#FFFFFF" d="M43.171,21.44c-1.999,0-3.62,1.611-3.62,3.604c0,1.988,1.621,3.601,3.62,3.601s3.62-1.612,3.62-3.601
				C46.791,23.052,45.17,21.44,43.171,21.44 M48.861,24.989c0,3.107-2.531,5.629-5.656,5.629c-3.121,0-5.654-2.521-5.654-5.629
				c0-3.108,2.533-5.627,5.654-5.627C46.33,19.362,48.861,21.881,48.861,24.989"/>
		</g>
		<polygon fill="#FFFFFF" points="48.106,17.809 49.717,17.809 49.717,28.437 48.053,28.437 48.053,30.264 49.717,30.264 
			53.309,30.264 53.309,28.437 51.727,28.437 51.727,15.933 48.106,15.933 		"/>
		<polygon fill="#FFFFFF" points="53.85,17.809 55.461,17.809 55.461,28.437 53.797,28.437 53.797,30.264 55.461,30.264 
			59.051,30.264 59.051,28.437 57.469,28.437 57.469,15.933 53.85,15.933 		"/>
	</g>
</g>
</svg>
